task_formula/dump.vcd
$date
	Wed May 07 03:48:21 2025
$end
$version
	Icarus Verilog
$end
$timescale
	1s
$end
$scope module tb $end
$var event 1 ! check_moment $end
$var wire 1 " vld_out $end
$var wire 22 # q [21:0] $end
$var parameter 32 $ width $end
$var parameter 65 % width_out $end
$var reg 8 & a [7:0] $end
$var reg 8 ' b [7:0] $end
$var reg 8 ( c [7:0] $end
$var reg 1 ) clk $end
$var reg 8 * counter [7:0] $end
$var reg 8 + d [7:0] $end
$var reg 22 , q_expected [21:0] $end
$var reg 1 - rst $end
$var reg 9 . sort [8:0] $end
$var reg 1 / vld_in $end
$scope function formula_ref $end
$var reg 23 0 a [22:0] $end
$var reg 24 1 a_minus_b [23:0] $end
$var reg 23 2 b [22:0] $end
$var reg 23 3 c [22:0] $end
$var reg 25 4 c_mult3 [24:0] $end
$var reg 23 5 d [22:0] $end
$var reg 50 6 d_mult4 [49:0] $end
$var reg 50 7 final_result [49:0] $end
$var reg 50 8 product [49:0] $end
$var reg 25 9 term2 [24:0] $end
$upscope $end
$scope module formula_DUT $end
$var wire 8 : a [7:0] $end
$var wire 8 ; b [7:0] $end
$var wire 8 < c [7:0] $end
$var wire 1 ) clk $end
$var wire 8 = d [7:0] $end
$var wire 23 > q [22:0] $end
$var wire 1 - rst $end
$var wire 1 / vld_in $end
$var wire 1 " vld_out $end
$var wire 23 ? res [22:0] $end
$var wire 21 @ numerator [20:0] $end
$var wire 11 A d_mul_4 [10:0] $end
$var wire 12 B c_mul_3_add_1 [11:0] $end
$var wire 12 C c_mul_3 [11:0] $end
$var wire 10 D c_mul_2 [9:0] $end
$var wire 20 E a_minus_b_mul_c_mul_3_add_1 [19:0] $end
$var wire 9 F a_minus_b [8:0] $end
$var parameter 32 G width $end
$upscope $end
$upscope $end
$enddefinitions $end
$comment Show the parameter values. $end
$dumpall
b1000 G
b10110 %
b1000 $
$end
#0
$dumpvars
bx F
bx E
bx0 D
bx C
bx B
bx00 A
bx @
bx ?
bx >
bx =
bx <
bx ;
bx :
bx 9
bx 8
bx 7
bx 6
bx 5
bx 4
bx 3
bx 2
bx 1
bx 0
1/
b0 .
x-
bx ,
bx +
b0 *
0)
bx (
bx '
bx &
bx #
1"
1!
$end
#10
1)
#20
0)
#30
1-
1)
#40
0)
#50
1)
#60
0)
#70
0-
1)
#80
0)
#90
1)
#91
b101100000000 #
b101100000000 >
b101100000000 ?
b1011000000000 @
b100011100 A
b1011100011100 E
b111111100011 B
b111111100010 C
b1111101100 D
b1 *
b101 .
b101100000000 ,
b1000111 +
b1000111 =
b11110110 (
b11110110 <
b100110100 F
b1100111 '
b1100111 ;
b10011011 &
b10011011 :
#100
0)
#110
1!
1)
#111
b111010100 #
b11101110100 A
b10000100 D
b111010100 >
b111010100 ?
b10 *
b1010 .
b111010100 ,
b11011101 +
b11011101 =
b11000111 B
b11000110 C
b1000010 (
b1000010 <
b11011000 '
b11011000 ;
b1110101000 @
b1100011100 E
b100 F
b11011100 &
b11011100 :
#120
0)
#130
1!
1)
#131
b1111111011111100110001 #
b11000011100 A
b1100001110 D
b11111111011111100110001 >
b11111111011111100110001 ?
b11 *
b1111 .
b1111111011111100110001 ,
b10000111 +
b10000111 =
b111010010110 B
b111010010101 C
b10000111 (
b10000111 <
b11000110 '
b11000110 ;
b111110111111001100010 @
b11110111110001111110 E
b1011101 F
b100011 &
b100011 :
#140
0)
#150
1!
1)
#151
b1111111111010101000101 #
b11001111000 A
b1001000 D
b11111111111010101000101 >
b11111111111010101000101 ?
b100 *
b10100 .
b1111111111010101000101 ,
b10011110 +
b10011110 =
b1101101 B
b1101100 C
b100100 (
b100100 <
b1110000 '
b1110000 ;
b111111110101010001010 @
b11111110100100000010 E
b111001010 F
b111010 &
b111010 :
#160
0)
#170
1!
1)
#171
b1111111111111101110110 #
b11001100100 A
b1100011010 D
b11111111111111101110110 >
b11111111111111101110110 ?
b101 *
b11001 .
b1111111111111101110110 ,
b10011001 +
b10011001 =
b111010101000 B
b111010100111 C
b10001101 (
b10001101 <
b1010111 '
b1010111 ;
b111111111111011101100 @
b11111111110101010000 E
b10 F
b1011001 &
b1011001 :
#180
0)
#190
1!
1)
#191
b1111111100111001110000 #
b11111110000 A
b1100001010 D
b11111111100111001110000 >
b11111111100111001110000 ?
b110 *
b11110 .
b1111111100111001110000 ,
b11111100 +
b11111100 =
b111010010000 B
b111010001111 C
b10000101 (
b10000101 <
b110 '
b110 ;
b111111001110011100000 @
b11111001110011010000 E
b1000101 F
b1001011 &
b1001011 :
#200
0)
#210
1!
1)
#211
b10101000100 #
b11000001000 A
b10110110 D
b10101000100 >
b10101000100 ?
b111 *
b100011 .
b10101000100 ,
b10000010 +
b10000010 =
b100010010 B
b100010001 C
b1011011 (
b1011011 <
b1110111 '
b1110111 ;
b101010001000 @
b100010010000 E
b1000 F
b1111111 &
b1111111 :
#220
0)
#230
1!
1)
#231
b1111111111111011100011 #
b110100000 A
b1110 D
b11111111111111011100011 >
b11111111111111011100011 ?
b1000 *
b101000 .
b1111111111111011100011 ,
b1101000 +
b1101000 =
b10110 B
b10101 C
b111 (
b111 <
b1010101 '
b1010101 ;
b111111111110111000110 @
b11111111111101100110 E
b111111001 F
b1001110 &
b1001110 :
#240
0)
#250
1!
1)
#251
b1111111110010000010110 #
b10010000 A
b10101110 D
b11111111110010000010110 >
b11111111110010000010110 ?
b1001 *
b101101 .
b1111111110010000010110 ,
b100100 +
b100100 =
b100000110 B
b100000101 C
b1010111 (
b1010111 <
b1111111 '
b1111111 ;
b111111100100000101100 @
b11111100100010111100 E
b111001010 F
b1001001 &
b1001001 :
#260
0)
#270
1!
1)
#271
b1111111110111110101101 #
b11011100100 A
b1110011100 D
b11111111110111110101101 >
b11111111110111110101101 ?
b1010 *
b110010 .
b1111111110111110101101 ,
b10111001 +
b10111001 =
b111101101011 B
b111101101010 C
b11001110 (
b11001110 <
b11110110 '
b11110110 ;
b111111101111101011010 @
b11111101111000111110 E
b111010 F
b110000 &
b110000 :
#280
0)
#290
1!
1)
#291
b110010001011 #
b11110110000 A
b1100110110 D
b110010001011 >
b110010001011 ?
b1011 *
b110111 .
b110010001011 ,
b11101100 +
b11101100 =
b111011010010 B
b111011010001 C
b10011011 (
b10011011 <
b11011 '
b11011 ;
b1100100010110 @
b1100011000110 E
b111101011 F
b110 &
b110 :
#300
0)
#310
1!
1)
#311
b1111111111101101001000 #
b11110101100 A
b100000 D
b11111111111101101001000 >
b11111111111101101001000 ?
b1100 *
b111100 .
b1111111111101101001000 ,
b11101011 +
b11101011 =
b110001 B
b110000 C
b10000 (
b10000 <
b100110 '
b100110 ;
b111111111011010010001 @
b11111111011000111101 E
b111001101 F
b11110011 &
b11110011 :
#320
0)
#330
1!
1)
#331
b1111111110111101001110 #
b10010100 A
b1101111010 D
b11111111110111101001110 >
b11111111110111101001110 ?
b1101 *
b1000001 .
b1111111110111101001110 ,
b100101 +
b100101 =
b111100111000 B
b111100110111 C
b10111101 (
b10111101 <
b100101 '
b100101 ;
b111111101111010011100 @
b11111101111100110000 E
b101010 F
b1001111 &
b1001111 :
#340
0)
#350
1!
1)
#351
b1111111100010010000110 #
b111100 A
b10101110 D
b11111111100010010000110 >
b11111111100010010000110 ?
b1110 *
b1000110 .
b1111111100010010000110 ,
b1111 +
b1111 =
b100000110 B
b100000101 C
b1010111 (
b1010111 <
b1010101 '
b1010101 ;
b111111000100100001100 @
b11111000100101001000 E
b110001100 F
b11100001 &
b11100001 :
#360
0)
#370
1!
1)
#371
b111000010011 #
b10011000 A
b10111100 D
b111000010011 >
b111000010011 ?
b1111 *
b1001011 .
b111000010011 ,
b100110 +
b100110 =
b100011011 B
b100011010 C
b1011110 (
b1011110 <
b10100111 '
b10100111 ;
b1110000100110 @
b1110010111110 E
b11010 F
b11000001 &
b11000001 :
#380
0)
#390
1!
1)
#391
b1111111110011100011001 #
b11111100000 A
b1100110 D
b11111111110011100011001 >
b11111111110011100011001 ?
b10000 *
b1010000 .
b1111111110011100011001 ,
b11111000 +
b11111000 =
b10011010 B
b10011001 C
b110011 (
b110011 <
b1011001 '
b1011001 ;
b111111100111000110010 @
b11111100111000010010 E
b110101101 F
b110 &
b110 :
#400
0)
#410
1!
1)
#411
b101110001110011 #
b11010101000 A
b11110110 D
b101110001110011 >
b101110001110011 ?
b10001 *
b1010101 .
b101110001110011 ,
b10101010 +
b10101010 =
b101110010 B
b101110001 C
b1111011 (
b1111011 <
b11010110 '
b11010110 ;
b1011100011100110 @
b1011011110001110 E
b1111111 F
b1010101 &
b1010101 :
#420
0)
#430
1!
1)
#431
b1010011100110 #
b11010101100 A
b1110100010 D
b1010011100110 >
b1010011100110 ?
b10010 *
b1011010 .
b1010011100110 ,
b10101011 +
b10101011 =
b111101110100 B
b111101110011 C
b11010001 (
b11010001 <
b1100101 '
b1100101 ;
b10100111001100 @
b10100001111000 E
b110110110 F
b11011 &
b11011 :
#440
0)
#450
1!
1)
#451
b1111111111110001110111 #
b110000000 A
b1100 D
b11111111111110001110111 >
b11111111111110001110111 ?
b10011 *
b1011111 .
b1111111111110001110111 ,
b1100000 +
b1100000 =
b10011 B
b10010 C
b110 (
b110 <
b1110110 '
b1110110 ;
b111111111100011101111 @
b11111111101001101111 E
b110110101 F
b101011 &
b101011 :
#460
0)
#470
1!
1)
#471
b1111111011010111010010 #
b11100000000 A
b1101011110 D
b11111111011010111010010 >
b11111111011010111010010 ?
b10100 *
b1100100 .
b1111111011010111010010 ,
b11000000 +
b11000000 =
b111100001110 B
b111100001101 C
b10101111 (
b10101111 <
b10010001 '
b10010001 ;
b111110110101110100100 @
b11110110101010100100 E
b10011110 F
b101111 &
b101111 :
#480
0)
#490
1!
1)
#491
b1111111101001000001100 #
b10011000 A
b1101001000 D
b11111111101001000001100 >
b11111111101001000001100 ?
b10101 *
b1101001 .
b1111111101001000001100 ,
b100110 +
b100110 =
b111011101101 B
b111011101100 C
b10100100 (
b10100100 <
b11010100 '
b11010100 ;
b111111010010000011001 @
b11111010010010110001 E
b1010101 F
b101001 &
b101001 :
#500
0)
#510
1!
1)
#511
b1111111111111100010101 #
b11110100000 A
b10111100 D
b11111111111111100010101 >
b11111111111111100010101 ?
b10110 *
b1101110 .
b1111111111111100010101 ,
b11101000 +
b11101000 =
b100011011 B
b100011010 C
b1011110 (
b1011110 <
b0 '
b0 ;
b111111111111000101010 @
b11111111110111001010 E
b111111110 F
b11111110 &
b11111110 :
#520
0)
#530
1!
1)
#531
b111010000 #
b101100100 A
b10001110 D
b111010000 >
b111010000 ?
b10111 *
b1110011 .
b111010000 ,
b1011001 +
b1011001 =
b11010110 B
b11010101 C
b1000111 (
b1000111 <
b11000001 '
b11000001 ;
b1110100000 @
b10100000100 E
b110 F
b11000111 &
b11000111 :
#540
0)
#550
1!
1)
#551
b1111111111100010001100 #
b11001110000 A
b1111010110 D
b11111111111100010001100 >
b11111111111100010001100 ?
b11000 *
b1111000 .
b1111111111100010001100 ,
b10011100 +
b10011100 =
b111111000010 B
b111111000001 C
b11101011 (
b11101011 <
b11101 '
b11101 ;
b111111111000100011000 @
b11111110111110001000 E
b1000100 F
b1100001 &
b1100001 :
#560
0)
#570
1!
1)
#571
b1111111111100111100010 #
b11110110000 A
b11000010 D
b11111111111100111100010 >
b11111111111100111100010 ?
b11001 *
b1111101 .
b1111111111100111100010 ,
b11101100 +
b11101100 =
b100100100 B
b100100011 C
b1100001 (
b1100001 <
b10001111 '
b10001111 ;
b111111111001111000100 @
b11111111001101110100 E
b111110101 F
b10000100 &
b10000100 :
#580
0)
#590
1!
1)
#591
b1111111011011101001000 #
b11101101100 A
b1100010010 D
b11111111011011101001000 >
b11111111011011101001000 ?
b11010 *
b10000010 .
b1111111011011101001000 ,
b11011011 +
b11011011 =
b111010011100 B
b111010011011 C
b10001001 (
b10001001 <
b10101011 '
b10101011 ;
b111110110111010010000 @
b11110110110111111100 E
b1101001 F
b10100 &
b10100 :
#600
0)
#610
1!
1)
#611
b10101011110 #
b11111100 A
b1111110010 D
b10101011110 >
b10101011110 ?
b11011 *
b10000111 .
b10101011110 ,
b111111 +
b111111 =
b111111101100 B
b111111101011 C
b11111001 (
b11111001 <
b1100001 '
b1100001 ;
b101010111100 @
b101110111000 E
b101101010 F
b11001011 &
b11001011 :
#620
0)
#630
1!
1)
#631
b1111111111110001100000 #
b100111100 A
b1111001100 D
b11111111111110001100000 >
b11111111111110001100000 ?
b11100 *
b10001100 .
b1111111111110001100000 ,
b1001111 +
b1001111 =
b111110110011 B
b111110110010 C
b11100110 (
b11100110 <
b1001110 '
b1001110 ;
b111111111100011000000 @
b11111111100111111100 E
b10100 F
b1100010 &
b1100010 :
#640
0)
#650
1!
1)
#651
b1111111110100100110111 #
b110100100 A
b1111010100 D
b11111111110100100110111 >
b11111111110100100110111 ?
b11101 *
b10010001 .
b1111111110100100110111 ,
b1101001 +
b1101001 =
b111110111111 B
b111110111110 C
b11101010 (
b11101010 <
b10101011 '
b10101011 ;
b111111101001001101111 @
b11111101010000010011 E
b10101101 F
b1011000 &
b1011000 :
#660
0)
#670
1!
1)
#671
b1111111110101000110111 #
b11001100 A
b1110011110 D
b11111111110101000110111 >
b11111111110101000110111 ?
b11110 *
b10010110 .
b1111111110101000110111 ,
b110011 +
b110011 =
b111101101110 B
b111101101101 C
b11001111 (
b11001111 <
b1 '
b1 ;
b111111101010001101110 @
b11111101010100111010 E
b1001011 F
b1001100 &
b1001100 :
#680
0)
#690
1!
1)
#691
b1111111101011100101000 #
b11001010100 A
b10010010 D
b11111111101011100101000 >
b11111111101011100101000 ?
b11111 *
b10011011 .
b1111111101011100101000 ,
b10010101 +
b10010101 =
b11011100 B
b11011011 C
b1001001 (
b1001001 <
b1000101 '
b1000101 ;
b111111010111001010000 @
b11111010110010100100 E
b110011111 F
b11100100 &
b11100100 :
#700
0)
#710
1!
1)
#711
b1111111111000011100110 #
b10100 A
b10100000 D
b11111111111000011100110 >
b11111111111000011100110 ?
b100000 *
b10100000 .
b1111111111000011100110 ,
b101 +
b101 =
b11110001 B
b11110000 C
b1010000 (
b1010000 <
b10111111 '
b10111111 ;
b111111110000111001100 @
b11111110000111100000 E
b111100000 F
b10011111 &
b10011111 :
#720
0)
#730
1!
1)
#731
b11011000 #
b100110000 A
b11110 D
b11011000 >
b11011000 ?
b100001 *
b10100101 .
b11011000 ,
b1001100 +
b1001100 =
b101110 B
b101101 C
b1111 (
b1111 <
b11110110 '
b11110110 ;
b110110000 @
b1011100000 E
b10000 F
b110 &
b110 :
#740
0)
#750
1!
1)
#751
b110010011110 #
b11000010000 A
b1101000010 D
b110010011110 >
b110010011110 ?
b100010 *
b10101010 .
b110010011110 ,
b10000100 +
b10000100 =
b111011100100 B
b111011100011 C
b10100001 (
b10100001 <
b11101111 '
b11101111 ;
b1100100111100 @
b1011101001100 E
b111101011 F
b11011010 &
b11011010 :
#760
0)
#770
1!
1)
#771
b1111111010110101101100 #
b11001100 A
b1100101110 D
b11111111010110101101100 >
b11111111010110101101100 ?
b100011 *
b10101111 .
b1111111010110101101100 ,
b110011 +
b110011 =
b111011000110 B
b111011000101 C
b10010111 (
b10010111 <
b10101001 '
b10101001 ;
b111110101101011011000 @
b11110101101110100100 E
b10000110 F
b101111 &
b101111 :
#780
0)
#790
1!
1)
#791
b1111111111110110110111 #
b100010100 A
b1110011100 D
b11111111111110110110111 >
b11111111111110110110111 ?
b100100 *
b10110100 .
b1111111111110110110111 ,
b1000101 +
b1000101 =
b111101101011 B
b111101101010 C
b11001110 (
b11001110 <
b10010 '
b10010 ;
b111111111101101101110 @
b11111111110010000010 E
b110 F
b11000 &
b11000 :
#800
0)
#810
1!
1)
#811
b1111111001000000010111 #
b11100101100 A
b11101100 D
b11111111001000000010111 >
b11111111001000000010111 ?
b100101 *
b10111001 .
b1111111001000000010111 ,
b11001011 +
b11001011 =
b101100011 B
b101100010 C
b1110110 (
b1110110 <
b1001111 '
b1001111 ;
b111110010000000101110 @
b11110001111101011010 E
b101011110 F
b10101101 &
b10101101 :
#820
0)
#830
1!
1)
#831
b110111101110 #
b10000000 A
b100100 D
b110111101110 >
b110111101110 ?
b100110 *
b10111110 .
b110111101110 ,
b100000 +
b100000 =
b110111 B
b110110 C
b10010 (
b10010 <
b11110110 '
b11110110 ;
b1101111011100 @
b1110001011100 E
b10000100 F
b1111010 &
b1111010 :
#840
0)
#850
1!
1)
#851
b1111111101111000100110 #
b10010100 A
b1110001000 D
b11111111101111000100110 >
b11111111101111000100110 ?
b100111 *
b11000011 .
b1111111101111000100110 ,
b100101 +
b100101 =
b111101001101 B
b111101001100 C
b11000100 (
b11000100 <
b11000000 '
b11000000 ;
b111111011110001001100 @
b11111011110011100000 E
b1100000 F
b100000 &
b100000 :
#860
0)
#870
1!
1)
#871
b1111111110100011010010 #
b11010101000 A
b1101000010 D
b11111111110100011010010 >
b11111111110100011010010 ?
b101000 *
b11001000 .
b1111111110100011010010 ,
b10101010 +
b10101010 =
b111011100100 B
b111011100011 C
b10100001 (
b10100001 <
b11000010 '
b11000010 ;
b111111101000110100100 @
b11111101000001001100 E
b101011 F
b11101101 &
b11101101 :
#880
0)
#890
1!
1)
#891
b101010000100000 #
b11000011100 A
b11110010 D
b101010000100000 >
b101010000100000 ?
b101001 *
b11001101 .
b101010000100000 ,
b10000111 +
b10000111 =
b101101100 B
b101101011 C
b1111001 (
b1111001 <
b10111111 '
b10111111 ;
b1010100001000000 @
b1010011001011100 E
b1110101 F
b110100 &
b110100 :
#900
0)
#910
1!
1)
#911
b1111111111010000111001 #
b1001000 A
b11011100 D
b11111111111010000111001 >
b11111111111010000111001 ?
b101010 *
b11010010 .
b1111111111010000111001 ,
b10010 +
b10010 =
b101001011 B
b101001010 C
b1101110 (
b1101110 <
b1001101 '
b1001101 ;
b111111110100001110010 @
b11111110100010111010 E
b111101110 F
b111011 &
b111011 :
#920
0)
#930
1!
1)
#931
b1111111101010 #
b11110111000 A
b11010100 D
b1111111101010 >
b1111111101010 ?
b101011 *
b11010111 .
b1111111101010 ,
b11101110 +
b11101110 =
b100111111 B
b100111110 C
b1101010 (
b1101010 <
b10011011 '
b10011011 ;
b11111111010101 @
b11111110001101 E
b110011 F
b11001110 &
b11001110 :
#940
0)
#950
1!
1)
#951
b1111111000001000101100 #
b11111000100 A
b1100100100 D
b11111111000001000101100 >
b11111111000001000101100 ?
b101100 *
b11011100 .
b1111111000001000101100 ,
b11110001 +
b11110001 =
b111010110111 B
b111010110110 C
b10010010 (
b10010010 <
b10101011 '
b10101011 ;
b111110000010001011000 @
b11110000010000011100 E
b11000100 F
b1101111 &
b1101111 :
#960
0)
#970
1!
1)
#971
b1111111111110100010110 #
b11001001000 A
b1111110000 D
b11111111111110100010110 >
b11111111111110100010110 ?
b101101 *
b11100001 .
b1111111111110100010110 ,
b10010010 +
b10010010 =
b111111101001 B
b111111101000 C
b11111000 (
b11111000 <
b10000010 '
b10000010 ;
b111111111101000101100 @
b11111111100001110100 E
b1010100 F
b11010110 &
b11010110 :
#980
0)
#990
1!
1)
#991
b11000100110100 #
b11101000100 A
b1110000010 D
b11000100110100 >
b11000100110100 ?
b101110 *
b11100110 .
b11000100110100 ,
b11010001 +
b11010001 =
b111101000100 B
b111101000011 C
b11000001 (
b11000001 <
b1000000 '
b1000000 ;
b110001001101000 @
b110000110101100 E
b101111011 F
b10111011 &
b10111011 :
#1000
0)
#1010
1!
1)
#1011
b100100000011 #
b11110111000 A
b1111001100 D
b100100000011 >
b100100000011 ?
b101111 *
b11101011 .
b100100000011 ,
b11101110 +
b11101110 =
b111110110011 B
b111110110010 C
b11100110 (
b11100110 <
b1101011 '
b1101011 ;
b1001000000111 @
b1000110111111 E
b111000101 F
b110000 &
b110000 :
#1020
0)
#1030
1!
1)
#1031
b1111111111101011100010 #
b1110100 A
b11010000 D
b11111111111101011100010 >
b11111111111101011100010 ?
b110000 *
b11110000 .
b1111111111101011100010 ,
b11101 +
b11101 =
b100111001 B
b100111000 C
b1101000 (
b1101000 <
b1010110 '
b1010110 ;
b111111111010111000100 @
b11111111011000111000 E
b111111000 F
b1001110 &
b1001110 :
#1040
0)
#1050
1!
1)
#1051
b1111111110111110101110 #
b100000100 A
b11101010 D
b11111111110111110101110 >
b11111111110111110101110 ?
b110001 *
b11110101 .
b1111111110111110101110 ,
b1000001 +
b1000001 =
b101100000 B
b101011111 C
b1110101 (
b1110101 <
b11100111 '
b11100111 ;
b111111101111101011100 @
b11111110000001100000 E
b111101001 F
b11010000 &
b11010000 :
#1060
0)
#1070
1!
1)
#1071
b100001101110010 #
b10010100 A
b11000000 D
b100001101110010 >
b100001101110010 ?
b110010 *
b11111010 .
b100001101110010 ,
b100101 +
b100101 =
b100100001 B
b100100000 C
b1100000 (
b1100000 <
b101 '
b101 ;
b1000011011100100 @
b1000011101111000 E
b1111000 F
b1111101 &
b1111101 :
