task_formula/dump.vcd
$date
	Wed May 07 02:18:32 2025
$end
$version
	Icarus Verilog
$end
$timescale
	1s
$end
$scope module tb $end
$var wire 1 ! vld_out $end
$var wire 22 " q [21:0] $end
$var parameter 32 # width $end
$var parameter 65 $ width_out $end
$var reg 8 % a [7:0] $end
$var reg 8 & b [7:0] $end
$var reg 8 ' c [7:0] $end
$var reg 1 ( clk $end
$var reg 5 ) counter [4:0] $end
$var reg 8 * d [7:0] $end
$var reg 22 + res_expected [21:0] $end
$var reg 1 , rst $end
$var reg 1 - vld_in $end
$scope function formula_ref $end
$var reg 23 . a [22:0] $end
$var reg 24 / a_minus_b [23:0] $end
$var reg 23 0 b [22:0] $end
$var reg 23 1 c [22:0] $end
$var reg 25 2 c_mult3 [24:0] $end
$var reg 23 3 d [22:0] $end
$var reg 50 4 d_mult4 [49:0] $end
$var reg 50 5 final_result [49:0] $end
$var reg 50 6 product [49:0] $end
$var reg 25 7 term2 [24:0] $end
$upscope $end
$scope module formula_DUT $end
$var wire 8 8 a [7:0] $end
$var wire 8 9 b [7:0] $end
$var wire 8 : c [7:0] $end
$var wire 1 ( clk $end
$var wire 8 ; d [7:0] $end
$var wire 23 < q [22:0] $end
$var wire 1 , rst $end
$var wire 1 - vld_in $end
$var wire 1 ! vld_out $end
$var wire 23 = res [22:0] $end
$var wire 21 > numerator [20:0] $end
$var wire 11 ? d_mul_4 [10:0] $end
$var wire 12 @ c_mul_3_add_1 [11:0] $end
$var wire 12 A c_mul_3 [11:0] $end
$var wire 10 B c_mul_2 [9:0] $end
$var wire 20 C a_minus_b_mul_c_mul_3_add_1 [19:0] $end
$var wire 9 D a_minus_b [8:0] $end
$var parameter 32 E width $end
$upscope $end
$upscope $end
$enddefinitions $end
$comment Show the parameter values. $end
$dumpall
b1000 E
b10110 $
b1000 #
$end
#0
$dumpvars
bx D
bx C
bx0 B
bx A
bx @
bx00 ?
bx >
bx =
bx <
bx ;
bx :
bx 9
bx 8
bx 7
bx 6
bx 5
bx 4
bx 3
bx 2
bx 1
bx 0
bx /
bx .
1-
x,
bx +
bx *
b0 )
0(
bx '
bx &
bx %
bx "
1!
$end
#10
1(
#20
0(
#30
1,
1(
#40
0(
#50
1(
#60
0(
#70
0,
1(
#80
0(
#90
b100000100100 "
b100000100100 <
b100000100100 =
b1000001001000 >
b110001100 ?
b1000111010100 C
b11100 @
b11011 A
b10010 B
b100000100100 +
b1000001001000 5
b110001100 4
b1000111010100 6
b11100 7
b11011 2
b10100011 /
b100100 .
b11111111111111110000001 0
b1001 1
b1100011 3
b1 )
b1100011 *
b1100011 ;
b1001 '
b1001 :
b10100011 D
b10000001 &
b10000001 9
b100100 %
b100100 8
1(
#100
0(
#110
b100101111011100 "
b1001000 ?
b11001010 B
b100101111011100 <
b100101111011100 =
b100101111011100 +
b1001011110111000 5
b1001000 4
b1001100000000000 6
b100110000 7
b100101111 2
b10000000 /
b1101 .
b11111111111111110001101 0
b1100101 1
b10010 3
b10 )
b10010 *
b10010 ;
b100110000 @
b100101111 A
b1100101 '
b1100101 :
b10001101 &
b10001101 9
b1001011110111000 >
b1001100000000000 C
b10000000 D
b1101 %
b1101 8
1(
#120
0(
#130
b1111111111011100110100 "
b11110100 ?
b11101100 B
b11111111111011100110100 <
b11111111111011100110100 =
b1111111111011100110100 +
b11111111111111111111111111111111111110111001101000 5
b11110100 4
b11111111111111111111111111111111111110111101011100 6
b101100011 7
b101100010 2
b111111111111111111110100 /
b1 .
b1101 0
b1110110 1
b111101 3
b11 )
b111101 *
b111101 ;
b101100011 @
b101100010 A
b1110110 '
b1110110 :
b1101 &
b1101 9
b111111110111001101000 >
b11111110111101011100 C
b111110100 D
b1 %
b1 8
1(
#140
0(
#150
b1111111111110010101010 "
b11100011000 ?
b1111110010 B
b11111111111110010101010 <
b11111111111110010101010 =
b1111111111110010101010 +
b11111111111111111111111111111111111111100101010100 5
b11111111111111111111111111111111111111111100011000 4
b11111111111111111111111111111111111111100001101100 6
b1111111111111111111101100 7
b1111111111111111111101011 2
b1100001 /
b11111111111111111101101 .
b11111111111111110001100 0
b11111111111111111111001 1
b11111111111111111000110 3
b100 )
b11000110 *
b11000110 ;
b111111101100 @
b111111101011 A
b11111001 '
b11111001 :
b10001100 &
b10001100 9
b111111111100101010100 >
b11111111100001101100 C
b1100001 D
b11101101 %
b11101101 8
1(
#160
0(
#170
b1111111111101011011010 "
b111011100 ?
b1111001010 B
b11111111111101011011010 <
b11111111111101011011010 =
b1111111111101011011010 +
b11111111111111111111111111111111111111010110110100 5
b111011100 4
b11111111111111111111111111111111111111011110010000 6
b1111111111111111110110000 7
b1111111111111111110101111 2
b11011 /
b11111111111111111000101 .
b11111111111111110101010 0
b11111111111111111100101 1
b1110111 3
b101 )
b1110111 *
b1110111 ;
b111110110000 @
b111110101111 A
b11100101 '
b11100101 :
b10101010 &
b10101010 9
b111111111010110110100 >
b11111111011110010000 C
b11011 D
b11000101 %
b11000101 8
1(
#180
0(
#190
b1111111111010111100110 "
b11100111000 ?
b1111100100 B
b11111111111010111100110 <
b11111111111010111100110 =
b1111111111010111100110 +
b11111111111111111111111111111111111110101111001101 5
b11111111111111111111111111111111111111111100111000 4
b11111111111111111111111111111111111110101100000101 6
b1111111111111111111010111 7
b1111111111111111111010110 2
b10000011 /
b10010 .
b11111111111111110001111 0
b11111111111111111110010 1
b11111111111111111001110 3
b110 )
b11001110 *
b11001110 ;
b111111010111 @
b111111010110 A
b11110010 '
b11110010 :
b10001111 &
b10001111 9
b111111110101111001101 >
b11111110101100000101 C
b10000011 D
b10010 %
b10010 8
1(
#200
0(
#210
b1001101110101 "
b11011110100 ?
b10111000 B
b1001101110101 <
b1001101110101 =
b1001101110101 +
b10011011101011 5
b11111111111111111111111111111111111111111011110100 4
b10010111011111 6
b100010101 7
b100010100 2
b100011 /
b11111111111111111101000 .
b11111111111111111000101 0
b1011100 1
b11111111111111110111101 3
b111 )
b10111101 *
b10111101 ;
b100010101 @
b100010100 A
b1011100 '
b1011100 :
b11000101 &
b11000101 9
b10011011101011 >
b10010111011111 C
b100011 D
b11101000 %
b11101000 8
1(
#220
0(
#230
b1111111101111101010100 "
b101000 ?
b11000110 B
b11111111101111101010100 <
b11111111101111101010100 =
b1111111101111101010100 +
b11111111111111111111111111111111111011111010101000 5
b101000 4
b11111111111111111111111111111111111011111011010000 6
b100101010 7
b100101001 2
b111111111111111111001000 /
b101101 .
b1100101 0
b1100011 1
b1010 3
b1000 )
b1010 *
b1010 ;
b100101010 @
b100101001 A
b1100011 '
b1100011 :
b1100101 &
b1100101 9
b111111011111010101000 >
b11111011111011010000 C
b111001000 D
b101101 %
b101101 8
1(
#240
0(
#250
b101000100010110 "
b11001110100 ?
b1101010100 B
b101000100010110 <
b101000100010110 =
b101000100010110 +
b1010001000101100 5
b11111111111111111111111111111111111111111001110100 4
b1010000010100000 6
b1111111111111111011111111 7
b1111111111111111011111110 2
b111111111111111101100000 /
b11111111111111110000000 .
b100000 0
b11111111111111110101010 1
b11111111111111110011101 3
b1001 )
b10011101 *
b10011101 ;
b111011111111 @
b111011111110 A
b10101010 '
b10101010 :
b100000 &
b100000 9
b1010001000101100 >
b1010000010100000 C
b101100000 D
b10000000 %
b10000000 8
1(
#260
0(
#270
b1111111111010110010110 "
b101001100 ?
b11010 B
b11111111111010110010110 <
b11111111111010110010110 =
b1111111111010110010110 +
b11111111111111111111111111111111111110101100101100 5
b101001100 4
b11111111111111111111111111111111111110110001111000 6
b101000 7
b100111 2
b111111111111111110000011 /
b11111111111111110010110 .
b10011 0
b1101 1
b1010011 3
b1010 )
b1010011 *
b1010011 ;
b101000 @
b100111 A
b1101 '
b1101 :
b10011 &
b10011 9
b111111110101100101100 >
b11111110110001111000 C
b110000011 D
b10010110 %
b10010110 8
1(
#280
0(
#290
b1010110001 "
b11010111000 ?
b100 B
b1010110001 <
b1010110001 =
b1010110001 +
b10101100010 5
b11111111111111111111111111111111111111111010111000 4
b10000011010 6
b111 7
b110 2
b10010110 /
b1101011 .
b11111111111111111010101 0
b10 1
b11111111111111110101110 3
b1011 )
b10101110 *
b10101110 ;
b111 @
b110 A
b10 '
b10 :
b11010101 &
b11010101 9
b10101100010 >
b10000011010 C
b10010110 D
b1101011 %
b1101011 8
1(
#300
0(
#310
b1000000010010 "
b101000 ?
b1000110 B
b1000000010010 <
b1000000010010 =
b1000000010010 +
b10000000100100 5
b101000 4
b10000001001100 6
b1101010 7
b1101001 2
b1001110 /
b11101 .
b11111111111111111001111 0
b100011 1
b1010 3
b1100 )
b1010 *
b1010 ;
b1101010 @
b1101001 A
b100011 '
b100011 :
b11001111 &
b11001111 9
b10000000100100 >
b10000001001100 C
b1001110 D
b11101 %
b11101 8
1(
#320
0(
#330
b101000001101 "
b11000101000 ?
b1111100100 B
b101000001101 <
b101000001101 =
b101000001101 +
b1010000011010 5
b11111111111111111111111111111111111111111000101000 4
b1001001000010 6
b1111111111111111111010111 7
b1111111111111111111010110 2
b111111111111111110001110 /
b11111111111111111001010 .
b111100 0
b11111111111111111110010 1
b11111111111111110001010 3
b1101 )
b10001010 *
b10001010 ;
b111111010111 @
b111111010110 A
b11110010 '
b11110010 :
b111100 &
b111100 9
b1010000011010 >
b1001001000010 C
b110001110 D
b11001010 %
b11001010 8
1(
#340
0(
#350
b100101011110110 "
b11000100100 ?
b11110000 B
b100101011110110 <
b100101011110110 =
b100101011110110 +
b1001010111101101 5
b11111111111111111111111111111111111111111000100100 4
b1001010000010001 6
b101101001 7
b101101000 2
b1101001 /
b1000001 .
b11111111111111111011000 0
b1111000 1
b11111111111111110001001 3
b1110 )
b10001001 *
b10001001 ;
b101101001 @
b101101000 A
b1111000 '
b1111000 :
b11011000 &
b11011000 9
b1001010111101101 >
b1001010000010001 C
b1101001 D
b1000001 %
b1000001 8
1(
#360
0(
#370
b1111111110111010111011 "
b11010111000 ?
b1110001100 B
b11111111110111010111011 <
b11111111110111010111011 =
b1111111110111010111011 +
b11111111111111111111111111111111111101110101110111 5
b11111111111111111111111111111111111111111010111000 4
b11111111111111111111111111111111111101110000101111 6
b1111111111111111101010011 7
b1111111111111111101010010 2
b110101 /
b11111111111111111101011 .
b11111111111111110110110 0
b11111111111111111000110 1
b11111111111111110101110 3
b1111 )
b10101110 *
b10101110 ;
b111101010011 @
b111101010010 A
b11000110 '
b11000110 :
b10110110 &
b10110110 9
b111111101110101110111 >
b11111101110000101111 C
b110101 D
b11101011 %
b11101011 8
1(
#380
0(
#390
b1111111111011111010000 "
b111000100 ?
b10110 B
b11111111111011111010000 <
b11111111111011111010000 =
b1111111111011111010000 +
b11111111111111111111111111111111111110111110100000 5
b111000100 4
b11111111111111111111111111111111111111000101100100 6
b100010 7
b100001 2
b111111111111111110010010 /
b11111111111111110111100 .
b101010 0
b1011 1
b1110001 3
b10000 )
b1110001 *
b1110001 ;
b100010 @
b100001 A
b1011 '
b1011 :
b101010 &
b101010 9
b111111110111110100000 >
b11111111000101100100 C
b110010010 D
b10111100 %
b10111100 8
1(
#400
0(
#410
b1111111011100101010010 "
b11101000 ?
b1110110 B
b11111111011100101010010 <
b11111111011100101010010 =
b1111111011100101010010 +
b11111111111111111111111111111111110111001010100100 5
b11101000 4
b11111111111111111111111111111111110111001110001100 6
b10110010 7
b10110001 2
b111111111111111100110110 /
b11111111111111110000101 .
b1001111 0
b111011 1
b111010 3
b10001 )
b111010 *
b111010 ;
b10110010 @
b10110001 A
b111011 '
b111011 :
b1001111 &
b1001111 9
b111110111001010100100 >
b11110111001110001100 C
b100110110 D
b10000101 %
b10000101 8
1(
#420
0(
#430
b1111111111011101001000 "
b11101100100 ?
b1111100010 B
b11111111111011101001000 <
b11111111111011101001000 =
b1111111111011101001000 +
b11111111111111111111111111111111111110111010010000 5
b11111111111111111111111111111111111111111101100100 4
b11111111111111111111111111111111111110110111110100 6
b1111111111111111111010100 7
b1111111111111111111010011 2
b1101001 /
b1111110 .
b10101 0
b11111111111111111110001 1
b11111111111111111011001 3
b10010 )
b11011001 *
b11011001 ;
b111111010100 @
b111111010011 A
b11110001 '
b11110001 :
b10101 &
b10101 9
b111111110111010010000 >
b11111110110111110100 C
b1101001 D
b1111110 %
b1111110 8
1(
#440
0(
#450
b1111111111010001101100 "
b11000111100 ?
b1100111110 B
b11111111111010001101100 <
b11111111111010001101100 =
b1111111111010001101100 +
b11111111111111111111111111111111111110100011011000 5
b11111111111111111111111111111111111111111000111100 4
b11111111111111111111111111111111111110011100010100 6
b1111111111111111011011110 7
b1111111111111111011011101 2
b10110 /
b1100010 .
b1001100 0
b11111111111111110011111 1
b11111111111111110001111 3
b10011 )
b10001111 *
b10001111 ;
b111011011110 @
b111011011101 A
b10011111 '
b10011111 :
b1001100 &
b1001100 9
b111111110100011011000 >
b11111110011100010100 C
b10110 D
b1100010 %
b1100010 8
1(
#460
0(
#470
b1111111101101001110111 "
b101110000 ?
b11111111101101001110111 <
b11111111101101001110111 =
b1111111101101001110111 +
b11111111111111111111111111111111111011010011101110 5
b101110000 4
b11111111111111111111111111111111111011011001011110 6
b1000001 /
b11111111111111111111000 .
b11111111111111110110111 0
b1011100 3
b10100 )
b1011100 *
b1011100 ;
b10110111 &
b10110111 9
b111111011010011101110 >
b11111011011001011110 C
b1000001 D
b11111000 %
b11111000 8
1(
#480
0(
#490
b101101010011100 "
b11101000000 ?
b10010010 B
b101101010011100 <
b101101010011100 =
b101101010011100 +
b1011010100111000 5
b11111111111111111111111111111111111111111101000000 4
b1011010001111000 6
b11011100 7
b11011011 2
b11010010 /
b1011011 .
b11111111111111110001001 0
b1001001 1
b11111111111111111010000 3
b10101 )
b11010000 *
b11010000 ;
b11011100 @
b11011011 A
b1001001 '
b1001001 :
b10001001 &
b10001001 9
b1011010100111000 >
b1011010001111000 C
b11010010 D
b1011011 %
b1011011 8
1(
